{
    "devDependencies": {
    "babel-core": "^6.26.0",
    "babel-loader": "^7.1.2",
    "babel-preset-es2015": "^6.24.1",
    "babel-preset-react": "^6.24.1",
    "clean-webpack-plugin": "^0.1.17",
    "css-loader": "^0.28.7",
    "extract-text-webpack-plugin": "^3.0.2",
    "file-loader": "^1.1.5",
    "style-loader": "^0.19.0",
    "url-loader": "^0.6.2",
    "webpack": "^3.8.1",
    "webpack-dev-server": "^2.9.3"
  }
}